%YAML 1.1
%TAG !u! tag:unity3d.com,2011:
--- !u!114 &11400000
MonoBehaviour:
  m_ObjectHideFlags: 0
  m_CorrespondingSourceObject: {fileID: 0}
  m_PrefabInstance: {fileID: 0}
  m_PrefabAsset: {fileID: 0}
  m_GameObject: {fileID: 0}
  m_Enabled: 1
  m_EditorHideFlags: 0
  m_Script: {fileID: 11500000, guid: 29e1be0cb7592454a848cb0629f76c18, type: 3}
  m_Name: D_BigBdfSpeedUp_LessScale
  m_EditorClassIdentifier: 
  UpgradeName: FAST FIREBALL MASTER
  nameColor: {r: 0.6226415, g: 0.26139194, b: 0.26839507, a: 1}
  TextDescription: 'FIREBALL :

    speed ++

    cooldown --


    BUT


    FIREBALL
    :

    scale -'
  textColor: {r: 0.6792453, g: 0.36845854, b: 0.3733146, a: 1}
  icon: {fileID: 21300000, guid: 4186d9c8d97de5d47aa3ae55a9dcaeb1, type: 3}
  iconColor: {r: 0.735849, g: 0.2880918, b: 0.2880918, a: 1}
  VFXindex: 1
  bonus_movespeed: 0
  bonus_AuraScale: 0
  bonus_flameThrower: 0
  bonus_fireTrail: 0
  bonus_bdfCD: -0.4
  bonus_bdfSpeed: 5
  bonus_bdfScale: -1
  bonus_piercing: 0
  bonus_triple: 0
  bonus_dashCD: 0
  bonus_sloMo: 0
  bonus_Match: 0
  bonus_Shield: 0
