%YAML 1.1
%TAG !u! tag:unity3d.com,2011:
--- !u!114 &11400000
MonoBehaviour:
  m_ObjectHideFlags: 0
  m_CorrespondingSourceObject: {fileID: 0}
  m_PrefabInstance: {fileID: 0}
  m_PrefabAsset: {fileID: 0}
  m_GameObject: {fileID: 0}
  m_Enabled: 1
  m_EditorHideFlags: 0
  m_Script: {fileID: 11500000, guid: f2a7c18ac2f2a924286bcb8ee40995f7, type: 3}
  m_Name: AudioLibrary
  m_EditorClassIdentifier: 
  soundEffects:
  - clip: {fileID: 8300000, guid: 03df1998ccdb5824dbceb63261bc13c4, type: 3}
    volume: 1
  - clip: {fileID: 8300000, guid: 38a9af0e70939294db6cdbdee586a206, type: 3}
    volume: 0.4
  - clip: {fileID: 8300000, guid: a9f7081080ce81f4eb1ebc47f1fd3cde, type: 3}
    volume: 0.8
  - clip: {fileID: 8300000, guid: 1d9ce365c6f546b4990371ecdf27ef5a, type: 3}
    volume: 1
  - clip: {fileID: 8300000, guid: e7376d14ee9928948a3ce9935ca39ffd, type: 3}
    volume: 0.05
  - clip: {fileID: 8300000, guid: 6dae6dfd8ddf4fa4fa60ec58541a4b0d, type: 3}
    volume: 0.8
  - clip: {fileID: 8300000, guid: 33a0f5e381b5fa84d831ef5d4262ca2d, type: 3}
    volume: 0.35
  - clip: {fileID: 8300000, guid: ab33034718389a745817bc068f845d71, type: 3}
    volume: 0.1
  - clip: {fileID: 8300000, guid: 193e6a51dbfdb2449b6e4543e478444f, type: 3}
    volume: 0.05
  - clip: {fileID: 8300000, guid: 9c27135a106a25246b23ef8a748cc1b2, type: 3}
    volume: 1
  - clip: {fileID: 8300000, guid: 10cc7f8330238ed4081490ec768fd79a, type: 3}
    volume: 0.6
  - clip: {fileID: 8300000, guid: 9d18e99f945ece5439f1921bacd33833, type: 3}
    volume: 0.75
  - clip: {fileID: 8300000, guid: 528d91425ecb31d40a16f7d8ff29242b, type: 3}
    volume: 0.6
  musics: []
