%YAML 1.1
%TAG !u! tag:unity3d.com,2011:
--- !u!1001 &1611991478308221497
PrefabInstance:
  m_ObjectHideFlags: 0
  serializedVersion: 2
  m_Modification:
    m_TransformParent: {fileID: 0}
    m_Modifications:
    - target: {fileID: 2116786606060917590, guid: 333e11c205e55de4596cc4943092a851,
        type: 3}
      propertyPath: m_Name
      value: LaPetiteGrue
      objectReference: {fileID: 0}
    - target: {fileID: 2682263951477374760, guid: 333e11c205e55de4596cc4943092a851,
        type: 3}
      propertyPath: m_RootOrder
      value: 0
      objectReference: {fileID: 0}
    - target: {fileID: 2682263951477374760, guid: 333e11c205e55de4596cc4943092a851,
        type: 3}
      propertyPath: m_LocalScale.x
      value: 0.5
      objectReference: {fileID: 0}
    - target: {fileID: 2682263951477374760, guid: 333e11c205e55de4596cc4943092a851,
        type: 3}
      propertyPath: m_LocalScale.y
      value: 0.5
      objectReference: {fileID: 0}
    - target: {fileID: 2682263951477374760, guid: 333e11c205e55de4596cc4943092a851,
        type: 3}
      propertyPath: m_LocalScale.z
      value: 0.5
      objectReference: {fileID: 0}
    - target: {fileID: 2682263951477374760, guid: 333e11c205e55de4596cc4943092a851,
        type: 3}
      propertyPath: m_LocalPosition.x
      value: -10.23
      objectReference: {fileID: 0}
    - target: {fileID: 2682263951477374760, guid: 333e11c205e55de4596cc4943092a851,
        type: 3}
      propertyPath: m_LocalPosition.y
      value: 1.98
      objectReference: {fileID: 0}
    - target: {fileID: 2682263951477374760, guid: 333e11c205e55de4596cc4943092a851,
        type: 3}
      propertyPath: m_LocalPosition.z
      value: -7.27
      objectReference: {fileID: 0}
    - target: {fileID: 2682263951477374760, guid: 333e11c205e55de4596cc4943092a851,
        type: 3}
      propertyPath: m_LocalRotation.w
      value: 1
      objectReference: {fileID: 0}
    - target: {fileID: 2682263951477374760, guid: 333e11c205e55de4596cc4943092a851,
        type: 3}
      propertyPath: m_LocalRotation.x
      value: 0
      objectReference: {fileID: 0}
    - target: {fileID: 2682263951477374760, guid: 333e11c205e55de4596cc4943092a851,
        type: 3}
      propertyPath: m_LocalRotation.y
      value: 0
      objectReference: {fileID: 0}
    - target: {fileID: 2682263951477374760, guid: 333e11c205e55de4596cc4943092a851,
        type: 3}
      propertyPath: m_LocalRotation.z
      value: 0
      objectReference: {fileID: 0}
    - target: {fileID: 2682263951477374760, guid: 333e11c205e55de4596cc4943092a851,
        type: 3}
      propertyPath: m_LocalEulerAnglesHint.x
      value: 0
      objectReference: {fileID: 0}
    - target: {fileID: 2682263951477374760, guid: 333e11c205e55de4596cc4943092a851,
        type: 3}
      propertyPath: m_LocalEulerAnglesHint.y
      value: 0
      objectReference: {fileID: 0}
    - target: {fileID: 2682263951477374760, guid: 333e11c205e55de4596cc4943092a851,
        type: 3}
      propertyPath: m_LocalEulerAnglesHint.z
      value: 0
      objectReference: {fileID: 0}
    - target: {fileID: 6863670217851947581, guid: 333e11c205e55de4596cc4943092a851,
        type: 3}
      propertyPath: m_fleeRange
      value: 3
      objectReference: {fileID: 0}
    - target: {fileID: 6863670217851947581, guid: 333e11c205e55de4596cc4943092a851,
        type: 3}
      propertyPath: m_attackRange
      value: 6
      objectReference: {fileID: 0}
    - target: {fileID: 6863670217851947581, guid: 333e11c205e55de4596cc4943092a851,
        type: 3}
      propertyPath: m_idealStayRange
      value: 5
      objectReference: {fileID: 0}
    - target: {fileID: 6863670217851947581, guid: 333e11c205e55de4596cc4943092a851,
        type: 3}
      propertyPath: m_projectilePool
      value: 
      objectReference: {fileID: 0}
    - target: {fileID: 6863670217851947581, guid: 333e11c205e55de4596cc4943092a851,
        type: 3}
      propertyPath: m_projectileNumber
      value: 1
      objectReference: {fileID: 0}
    - target: {fileID: 6863670217851947581, guid: 333e11c205e55de4596cc4943092a851,
        type: 3}
      propertyPath: m_attackEndWaitTime
      value: 0.5
      objectReference: {fileID: 0}
    - target: {fileID: 6863670217851947581, guid: 333e11c205e55de4596cc4943092a851,
        type: 3}
      propertyPath: m_attackStartWaitTime
      value: 0.5
      objectReference: {fileID: 0}
    - target: {fileID: 6863670217851947582, guid: 333e11c205e55de4596cc4943092a851,
        type: 3}
      propertyPath: m_Speed
      value: 12
      objectReference: {fileID: 0}
    m_RemovedComponents: []
  m_SourcePrefab: {fileID: 100100000, guid: 333e11c205e55de4596cc4943092a851, type: 3}
