%YAML 1.1
%TAG !u! tag:unity3d.com,2011:
--- !u!1001 &7608492252267071264
PrefabInstance:
  m_ObjectHideFlags: 0
  serializedVersion: 2
  m_Modification:
    m_TransformParent: {fileID: 0}
    m_Modifications:
    - target: {fileID: 680463274239913776, guid: 56429741d7ca3394baf80848572b5a58,
        type: 3}
      propertyPath: m_angleOffset
      value: 25
      objectReference: {fileID: 0}
    - target: {fileID: 680463274239913776, guid: 56429741d7ca3394baf80848572b5a58,
        type: 3}
      propertyPath: m_attackRange
      value: 15
      objectReference: {fileID: 0}
    - target: {fileID: 680463274239913776, guid: 56429741d7ca3394baf80848572b5a58,
        type: 3}
      propertyPath: m_projectileSpeed
      value: 6
      objectReference: {fileID: 0}
    - target: {fileID: 680463274239913776, guid: 56429741d7ca3394baf80848572b5a58,
        type: 3}
      propertyPath: m_projectileNumber
      value: 5
      objectReference: {fileID: 0}
    - target: {fileID: 680463274239913776, guid: 56429741d7ca3394baf80848572b5a58,
        type: 3}
      propertyPath: m_attackEndWaitTime
      value: 1.5
      objectReference: {fileID: 0}
    - target: {fileID: 680463274239913776, guid: 56429741d7ca3394baf80848572b5a58,
        type: 3}
      propertyPath: m_attackStartWaitTime
      value: 1
      objectReference: {fileID: 0}
    - target: {fileID: 680463274239913776, guid: 56429741d7ca3394baf80848572b5a58,
        type: 3}
      propertyPath: m_attackRecoilDistance
      value: 1.5
      objectReference: {fileID: 0}
    - target: {fileID: 1694236359526637884, guid: 56429741d7ca3394baf80848572b5a58,
        type: 3}
      propertyPath: m_Name
      value: RogerRabbit_Gros
      objectReference: {fileID: 0}
    - target: {fileID: 2727981995912322744, guid: 56429741d7ca3394baf80848572b5a58,
        type: 3}
      propertyPath: m_LocalPosition.x
      value: 0.6196
      objectReference: {fileID: 0}
    - target: {fileID: 2727981995912322744, guid: 56429741d7ca3394baf80848572b5a58,
        type: 3}
      propertyPath: m_LocalPosition.y
      value: -0.21440001
      objectReference: {fileID: 0}
    - target: {fileID: 2727981995912322744, guid: 56429741d7ca3394baf80848572b5a58,
        type: 3}
      propertyPath: m_LocalPosition.z
      value: 0.06199951
      objectReference: {fileID: 0}
    - target: {fileID: 3448108148678118722, guid: 56429741d7ca3394baf80848572b5a58,
        type: 3}
      propertyPath: m_RootOrder
      value: 0
      objectReference: {fileID: 0}
    - target: {fileID: 3448108148678118722, guid: 56429741d7ca3394baf80848572b5a58,
        type: 3}
      propertyPath: m_LocalScale.x
      value: 1.25
      objectReference: {fileID: 0}
    - target: {fileID: 3448108148678118722, guid: 56429741d7ca3394baf80848572b5a58,
        type: 3}
      propertyPath: m_LocalScale.y
      value: 1.25
      objectReference: {fileID: 0}
    - target: {fileID: 3448108148678118722, guid: 56429741d7ca3394baf80848572b5a58,
        type: 3}
      propertyPath: m_LocalScale.z
      value: 1.25
      objectReference: {fileID: 0}
    - target: {fileID: 3448108148678118722, guid: 56429741d7ca3394baf80848572b5a58,
        type: 3}
      propertyPath: m_LocalPosition.x
      value: -1.68
      objectReference: {fileID: 0}
    - target: {fileID: 3448108148678118722, guid: 56429741d7ca3394baf80848572b5a58,
        type: 3}
      propertyPath: m_LocalPosition.y
      value: 1.87
      objectReference: {fileID: 0}
    - target: {fileID: 3448108148678118722, guid: 56429741d7ca3394baf80848572b5a58,
        type: 3}
      propertyPath: m_LocalPosition.z
      value: -14.65
      objectReference: {fileID: 0}
    - target: {fileID: 3448108148678118722, guid: 56429741d7ca3394baf80848572b5a58,
        type: 3}
      propertyPath: m_LocalRotation.w
      value: 1
      objectReference: {fileID: 0}
    - target: {fileID: 3448108148678118722, guid: 56429741d7ca3394baf80848572b5a58,
        type: 3}
      propertyPath: m_LocalRotation.x
      value: -0
      objectReference: {fileID: 0}
    - target: {fileID: 3448108148678118722, guid: 56429741d7ca3394baf80848572b5a58,
        type: 3}
      propertyPath: m_LocalRotation.y
      value: -0
      objectReference: {fileID: 0}
    - target: {fileID: 3448108148678118722, guid: 56429741d7ca3394baf80848572b5a58,
        type: 3}
      propertyPath: m_LocalRotation.z
      value: -0
      objectReference: {fileID: 0}
    - target: {fileID: 3448108148678118722, guid: 56429741d7ca3394baf80848572b5a58,
        type: 3}
      propertyPath: m_LocalEulerAnglesHint.x
      value: 0
      objectReference: {fileID: 0}
    - target: {fileID: 3448108148678118722, guid: 56429741d7ca3394baf80848572b5a58,
        type: 3}
      propertyPath: m_LocalEulerAnglesHint.y
      value: 0
      objectReference: {fileID: 0}
    - target: {fileID: 3448108148678118722, guid: 56429741d7ca3394baf80848572b5a58,
        type: 3}
      propertyPath: m_LocalEulerAnglesHint.z
      value: 0
      objectReference: {fileID: 0}
    - target: {fileID: 6171008458029824084, guid: 56429741d7ca3394baf80848572b5a58,
        type: 3}
      propertyPath: m_Speed
      value: 4
      objectReference: {fileID: 0}
    - target: {fileID: 6171008458029824084, guid: 56429741d7ca3394baf80848572b5a58,
        type: 3}
      propertyPath: m_Acceleration
      value: 1500
      objectReference: {fileID: 0}
    - target: {fileID: 6171008458029824084, guid: 56429741d7ca3394baf80848572b5a58,
        type: 3}
      propertyPath: m_AngularSpeed
      value: 720
      objectReference: {fileID: 0}
    - target: {fileID: 6171008458029824084, guid: 56429741d7ca3394baf80848572b5a58,
        type: 3}
      propertyPath: m_StoppingDistance
      value: 10
      objectReference: {fileID: 0}
    m_RemovedComponents: []
  m_SourcePrefab: {fileID: 100100000, guid: 56429741d7ca3394baf80848572b5a58, type: 3}
