%YAML 1.1
%TAG !u! tag:unity3d.com,2011:
--- !u!1 &867240650807504782
GameObject:
  m_ObjectHideFlags: 0
  m_CorrespondingSourceObject: {fileID: 0}
  m_PrefabInstance: {fileID: 0}
  m_PrefabAsset: {fileID: 0}
  serializedVersion: 6
  m_Component:
  - component: {fileID: 745726564414010056}
  m_Layer: 0
  m_Name: Rock_Pack_C
  m_TagString: Untagged
  m_Icon: {fileID: 0}
  m_NavMeshLayer: 0
  m_StaticEditorFlags: 0
  m_IsActive: 1
--- !u!4 &745726564414010056
Transform:
  m_ObjectHideFlags: 0
  m_CorrespondingSourceObject: {fileID: 0}
  m_PrefabInstance: {fileID: 0}
  m_PrefabAsset: {fileID: 0}
  m_GameObject: {fileID: 867240650807504782}
  m_LocalRotation: {x: 0, y: 0, z: 0, w: 1}
  m_LocalPosition: {x: 0, y: 0, z: 0}
  m_LocalScale: {x: 1, y: 1, z: 1}
  m_ConstrainProportionsScale: 0
  m_Children:
  - {fileID: 8760014906004846378}
  - {fileID: 6753656017034700081}
  m_Father: {fileID: 0}
  m_RootOrder: 0
  m_LocalEulerAnglesHint: {x: 0, y: 0, z: 0}
--- !u!1001 &473098773755360234
PrefabInstance:
  m_ObjectHideFlags: 0
  serializedVersion: 2
  m_Modification:
    m_TransformParent: {fileID: 745726564414010056}
    m_Modifications:
    - target: {fileID: 9151626639608104128, guid: 3f2adae0b17afaa458a5622a8b7b832d,
        type: 3}
      propertyPath: m_RootOrder
      value: 0
      objectReference: {fileID: 0}
    - target: {fileID: 9151626639608104128, guid: 3f2adae0b17afaa458a5622a8b7b832d,
        type: 3}
      propertyPath: m_LocalPosition.x
      value: 0
      objectReference: {fileID: 0}
    - target: {fileID: 9151626639608104128, guid: 3f2adae0b17afaa458a5622a8b7b832d,
        type: 3}
      propertyPath: m_LocalPosition.y
      value: 1
      objectReference: {fileID: 0}
    - target: {fileID: 9151626639608104128, guid: 3f2adae0b17afaa458a5622a8b7b832d,
        type: 3}
      propertyPath: m_LocalPosition.z
      value: 0
      objectReference: {fileID: 0}
    - target: {fileID: 9151626639608104128, guid: 3f2adae0b17afaa458a5622a8b7b832d,
        type: 3}
      propertyPath: m_LocalRotation.w
      value: 1
      objectReference: {fileID: 0}
    - target: {fileID: 9151626639608104128, guid: 3f2adae0b17afaa458a5622a8b7b832d,
        type: 3}
      propertyPath: m_LocalRotation.x
      value: 0
      objectReference: {fileID: 0}
    - target: {fileID: 9151626639608104128, guid: 3f2adae0b17afaa458a5622a8b7b832d,
        type: 3}
      propertyPath: m_LocalRotation.y
      value: 0
      objectReference: {fileID: 0}
    - target: {fileID: 9151626639608104128, guid: 3f2adae0b17afaa458a5622a8b7b832d,
        type: 3}
      propertyPath: m_LocalRotation.z
      value: 0
      objectReference: {fileID: 0}
    - target: {fileID: 9151626639608104128, guid: 3f2adae0b17afaa458a5622a8b7b832d,
        type: 3}
      propertyPath: m_LocalEulerAnglesHint.x
      value: 0
      objectReference: {fileID: 0}
    - target: {fileID: 9151626639608104128, guid: 3f2adae0b17afaa458a5622a8b7b832d,
        type: 3}
      propertyPath: m_LocalEulerAnglesHint.y
      value: 0
      objectReference: {fileID: 0}
    - target: {fileID: 9151626639608104128, guid: 3f2adae0b17afaa458a5622a8b7b832d,
        type: 3}
      propertyPath: m_LocalEulerAnglesHint.z
      value: 0
      objectReference: {fileID: 0}
    - target: {fileID: 9151626639608104131, guid: 3f2adae0b17afaa458a5622a8b7b832d,
        type: 3}
      propertyPath: m_Name
      value: Rock_C
      objectReference: {fileID: 0}
    m_RemovedComponents: []
  m_SourcePrefab: {fileID: 100100000, guid: 3f2adae0b17afaa458a5622a8b7b832d, type: 3}
--- !u!4 &8760014906004846378 stripped
Transform:
  m_CorrespondingSourceObject: {fileID: 9151626639608104128, guid: 3f2adae0b17afaa458a5622a8b7b832d,
    type: 3}
  m_PrefabInstance: {fileID: 473098773755360234}
  m_PrefabAsset: {fileID: 0}
--- !u!1001 &2501984534365446641
PrefabInstance:
  m_ObjectHideFlags: 0
  serializedVersion: 2
  m_Modification:
    m_TransformParent: {fileID: 745726564414010056}
    m_Modifications:
    - target: {fileID: 9151626639608104128, guid: 3f2adae0b17afaa458a5622a8b7b832d,
        type: 3}
      propertyPath: m_RootOrder
      value: 1
      objectReference: {fileID: 0}
    - target: {fileID: 9151626639608104128, guid: 3f2adae0b17afaa458a5622a8b7b832d,
        type: 3}
      propertyPath: m_LocalScale.y
      value: -1
      objectReference: {fileID: 0}
    - target: {fileID: 9151626639608104128, guid: 3f2adae0b17afaa458a5622a8b7b832d,
        type: 3}
      propertyPath: m_LocalPosition.x
      value: 0
      objectReference: {fileID: 0}
    - target: {fileID: 9151626639608104128, guid: 3f2adae0b17afaa458a5622a8b7b832d,
        type: 3}
      propertyPath: m_LocalPosition.y
      value: -1
      objectReference: {fileID: 0}
    - target: {fileID: 9151626639608104128, guid: 3f2adae0b17afaa458a5622a8b7b832d,
        type: 3}
      propertyPath: m_LocalPosition.z
      value: 0
      objectReference: {fileID: 0}
    - target: {fileID: 9151626639608104128, guid: 3f2adae0b17afaa458a5622a8b7b832d,
        type: 3}
      propertyPath: m_LocalRotation.w
      value: 1
      objectReference: {fileID: 0}
    - target: {fileID: 9151626639608104128, guid: 3f2adae0b17afaa458a5622a8b7b832d,
        type: 3}
      propertyPath: m_LocalRotation.x
      value: 0
      objectReference: {fileID: 0}
    - target: {fileID: 9151626639608104128, guid: 3f2adae0b17afaa458a5622a8b7b832d,
        type: 3}
      propertyPath: m_LocalRotation.y
      value: 0
      objectReference: {fileID: 0}
    - target: {fileID: 9151626639608104128, guid: 3f2adae0b17afaa458a5622a8b7b832d,
        type: 3}
      propertyPath: m_LocalRotation.z
      value: 0
      objectReference: {fileID: 0}
    - target: {fileID: 9151626639608104128, guid: 3f2adae0b17afaa458a5622a8b7b832d,
        type: 3}
      propertyPath: m_LocalEulerAnglesHint.x
      value: 0
      objectReference: {fileID: 0}
    - target: {fileID: 9151626639608104128, guid: 3f2adae0b17afaa458a5622a8b7b832d,
        type: 3}
      propertyPath: m_LocalEulerAnglesHint.y
      value: 0
      objectReference: {fileID: 0}
    - target: {fileID: 9151626639608104128, guid: 3f2adae0b17afaa458a5622a8b7b832d,
        type: 3}
      propertyPath: m_LocalEulerAnglesHint.z
      value: 0
      objectReference: {fileID: 0}
    - target: {fileID: 9151626639608104131, guid: 3f2adae0b17afaa458a5622a8b7b832d,
        type: 3}
      propertyPath: m_Name
      value: Rock_C (1)
      objectReference: {fileID: 0}
    m_RemovedComponents: []
  m_SourcePrefab: {fileID: 100100000, guid: 3f2adae0b17afaa458a5622a8b7b832d, type: 3}
--- !u!4 &6753656017034700081 stripped
Transform:
  m_CorrespondingSourceObject: {fileID: 9151626639608104128, guid: 3f2adae0b17afaa458a5622a8b7b832d,
    type: 3}
  m_PrefabInstance: {fileID: 2501984534365446641}
  m_PrefabAsset: {fileID: 0}
